module gitlab.com/matrix_2/be_matrix_02

go 1.13

require (
	github.com/DATA-DOG/go-sqlmock v1.4.1
	github.com/bxcodec/faker v2.0.1+incompatible
	github.com/bxcodec/go-clean-arch v2.0.1+incompatible // indirect
	github.com/dgrijalva/jwt-go v3.2.0+incompatible
	github.com/eapache/go-resiliency v1.2.0 // indirect
	github.com/go-playground/universal-translator v0.17.0 // indirect
	github.com/go-sql-driver/mysql v1.5.0
	github.com/gorilla/mux v1.7.4
	github.com/jmoiron/sqlx v1.2.0
	github.com/joho/godotenv v1.3.0
	github.com/json-iterator/go v1.1.10 // indirect
	github.com/labstack/echo v3.3.10+incompatible
	github.com/labstack/gommon v0.3.0 // indirect
	github.com/leodido/go-urn v1.2.0 // indirect
	github.com/lib/pq v1.1.1
	github.com/magiconair/properties v1.8.1
	github.com/mattn/go-sqlite3 v2.0.1+incompatible // indirect
	github.com/mediocregopher/radix/v3 v3.5.1 // indirect
	github.com/sirupsen/logrus v1.6.0 // indirect
	github.com/spf13/viper v1.7.0 // indirect
	github.com/stretchr/testify v1.4.0
	golang.org/x/crypto v0.0.0-20200604202706-70a84ac30bf9
	google.golang.org/grpc v1.29.1 // indirect
	gopkg.in/DATA-DOG/go-sqlmock.v1 v1.3.0 // indirect
	gopkg.in/go-playground/assert.v1 v1.2.1 // indirect
	gopkg.in/go-playground/validator.v9 v9.31.0
	gopkg.in/guregu/null.v3 v3.5.0
)
